%YAML 1.1
%TAG !u! tag:unity3d.com,2011:
--- !u!114 &11400000
MonoBehaviour:
  m_ObjectHideFlags: 0
  m_CorrespondingSourceObject: {fileID: 0}
  m_PrefabInstance: {fileID: 0}
  m_PrefabAsset: {fileID: 0}
  m_GameObject: {fileID: 0}
  m_Enabled: 1
  m_EditorHideFlags: 0
  m_Script: {fileID: 11500000, guid: 094cfaae6a324748b4db39d9bb1e2267, type: 3}
  m_Name: Lucky Buy Dataset
  m_EditorClassIdentifier: 
  luckyBuyGroups:
  - luckyBuyGroup: 0
    itemSlots:
    - itemGroup: 2
      itemName: w6
    - itemGroup: 1
      itemName: h14
    - itemGroup: 2
      itemName: w7
    - itemGroup: 1
      itemName: h6
    - itemGroup: 2
      itemName: w4
    - itemGroup: 1
      itemName: h19
    - itemGroup: 2
      itemName: w10
    - itemGroup: 1
      itemName: h20
    - itemGroup: 2
      itemName: w11
    - itemGroup: 1
      itemName: h25
    - itemGroup: 2
      itemName: w12
    - itemGroup: 1
      itemName: h13
    - itemGroup: 2
      itemName: w13
    - itemGroup: 2
      itemName: w16
    - itemGroup: 2
      itemName: w19
    - itemGroup: 2
      itemName: w22
    - itemGroup: 2
      itemName: w23
  - luckyBuyGroup: 1
    itemSlots:
    - itemGroup: 2
      itemName: w5
    - itemGroup: 1
      itemName: h4
    - itemGroup: 2
      itemName: w9
    - itemGroup: 1
      itemName: h10
    - itemGroup: 2
      itemName: w15
    - itemGroup: 1
      itemName: h3
    - itemGroup: 2
      itemName: w25
    - itemGroup: 1
      itemName: h15
    - itemGroup: 2
      itemName: w27
    - itemGroup: 1
      itemName: h12
    - itemGroup: 2
      itemName: w29
    - itemGroup: 1
      itemName: h8
    - itemGroup: 2
      itemName: w35
    - itemGroup: 2
      itemName: w26
    - itemGroup: 2
      itemName: w34
    - itemGroup: 2
      itemName: w37
    - itemGroup: 2
      itemName: w33
  - luckyBuyGroup: 2
    itemSlots:
    - itemGroup: 2
      itemName: w2
    - itemGroup: 1
      itemName: h9
    - itemGroup: 2
      itemName: w21
    - itemGroup: 1
      itemName: h18
    - itemGroup: 2
      itemName: w24
    - itemGroup: 1
      itemName: h23
    - itemGroup: 2
      itemName: w14
    - itemGroup: 1
      itemName: h24
    - itemGroup: 2
      itemName: w17
    - itemGroup: 1
      itemName: h22
    - itemGroup: 2
      itemName: w20
    - itemGroup: 1
      itemName: h21
    - itemGroup: 2
      itemName: w18
    - itemGroup: 2
      itemName: w30
    - itemGroup: 2
      itemName: w31
    - itemGroup: 2
      itemName: w36
    - itemGroup: 2
      itemName: w32
