%YAML 1.1
%TAG !u! tag:unity3d.com,2011:
--- !u!114 &11400000
MonoBehaviour:
  m_ObjectHideFlags: 0
  m_CorrespondingSourceObject: {fileID: 0}
  m_PrefabInstance: {fileID: 0}
  m_PrefabAsset: {fileID: 0}
  m_GameObject: {fileID: 0}
  m_Enabled: 1
  m_EditorHideFlags: 0
  m_Script: {fileID: 11500000, guid: 1cfc61dee1ea41eb84583bb45ff924f4, type: 3}
  m_Name: Won Reward Dataset
  m_EditorClassIdentifier: 
  wonRewardBases:
  - gold: 100
  - gold: 150
  - gold: 200
  - gold: 250
  - gold: 300
  - gold: 350
  - gold: 400
  - gold: 450
  - gold: 500
  - gold: 550
  - gold: 600
  - gold: 650
  - gold: 700
  - gold: 750
  - gold: 800
  - gold: 850
  - gold: 900
  - gold: 950
  - gold: 1000
  - gold: 1050
  - gold: 1100
  - gold: 1150
  - gold: 1200
  - gold: 1250
  - gold: 1300
  - gold: 1350
  - gold: 1400
  - gold: 1450
  - gold: 1500
  - gold: 1550
  - gold: 1600
  - gold: 1650
  - gold: 1700
  - gold: 1750
  - gold: 1800
  - gold: 1850
  - gold: 1900
  - gold: 1950
  - gold: 2000
  - gold: 2050
  - gold: 2100
  - gold: 2150
  - gold: 2200
  - gold: 2250
  - gold: 2300
  - gold: 2350
  - gold: 2400
  - gold: 2450
  - gold: 2500
  - gold: 2550
  - gold: 2600
  - gold: 2650
  - gold: 2700
  - gold: 2750
  - gold: 2800
  - gold: 2850
  - gold: 2900
  - gold: 2950
  - gold: 3000
  - gold: 3050
  - gold: 3100
  - gold: 3150
  - gold: 3200
  - gold: 3250
  - gold: 3300
  - gold: 3350
  - gold: 3400
  - gold: 3450
  - gold: 3500
  - gold: 3550
  - gold: 3600
  - gold: 3650
  - gold: 3700
  - gold: 3750
  - gold: 3800
  - gold: 3850
  - gold: 3900
  - gold: 3950
  - gold: 4000
  - gold: 4050
  - gold: 4100
  - gold: 4150
  - gold: 4200
  - gold: 4250
  - gold: 4300
  - gold: 4350
  - gold: 4400
  - gold: 4450
  - gold: 4500
  - gold: 4550
  - gold: 4600
  - gold: 4650
  - gold: 4700
  - gold: 4750
  - gold: 4800
  - gold: 4850
  - gold: 4900
  - gold: 4950
  - gold: 5000
  - gold: 5050
